{
  "implemented": true,
  "name": "Mr. Mime",
  "nationalPokedexNumber": 122,
  "primaryType": "psychic",
  "secondaryType": "fairy",
  "abilities": [
    "soundproof",
    "filter",
    "h:technician"
  ],
  "baseStats": {
    "hp": 40,
    "attack": 45,
    "defence": 65,
    "special_attack": 100,
    "special_defence": 120,
    "speed": 90
  },
  "catchRate": 45,
  "maleRatio": 0.5,
  "shoulderMountable": false,
  "forms": [
    {
      "name": "Galar",
      "primaryType": "ice",
      "secondaryType": "psychic",
      "abilities": [
        "vitalspirit",
        "screencleaner",
        "h:icebody"
      ],
      "baseStats": {
        "hp": 50,
        "attack": 65,
        "defence": 65,
        "special_attack": 90,
        "special_defence": 90,
        "speed": 100
      },
      "catchRate": 45,
      "maleRatio": 0.5,
      "baseExperienceYield": 161,
      "baseFriendship": 50,
      "evYield": {
        "hp": 0,
        "attack": 0,
        "defence": 0,
        "special_attack": 0,
        "special_defence": 0,
        "speed": 2
      },
      "experienceGroup": "medium_fast",
      "eggCycles": 25,
      "eggGroups": [
        "human_like"
      ],
      "moves": [
        "1:batonpass",
        "1:copycat",
        "1:dazzlinggleam",
        "1:encore",
        "1:iceshard",
        "1:lightscreen",
        "1:mimic",
        "1:mistyterrain",
        "1:pound",
        "1:protect",
        "1:rapidspin",
        "1:recycle",
        "1:reflect",
        "1:roleplay",
        "1:safeguard",
        "12:confusion",
        "16:allyswitch",
        "20:icywind",
        "24:doublekick",
        "28:psybeam",
        "32:hypnosis",
        "36:mirrorcoat",
        "40:suckerpunch",
        "44:freezedry",
        "48:psychic",
        "52:teeterdance",
        "egg:confuseray",
        "egg:fakeout",
        "egg:powersplit",
        "egg:tickle",
        "tm:allyswitch",
        "tm:attract",
        "tm:avalanche",
        "tm:batonpass",
        "tm:blizzard",
        "tm:bodyslam",
        "tm:brickbreak",
        "tm:calmmind",
        "tm:charm",
        "tm:dazzlinggleam",
        "tm:drainpunch",
        "tm:encore",
        "tm:endure",
        "tm:energyball",
        "tm:facade",
        "tm:fling",
        "tm:focusblast",
        "tm:foulplay",
        "tm:futuresight",
        "tm:gigaimpact",
        "tm:grassknot",
        "tm:guardswap",
        "tm:hail",
        "tm:helpinghand",
        "tm:hyperbeam",
        "tm:icebeam",
        "tm:icepunch",
        "tm:iciclespear",
        "tm:icywind",
        "tm:irondefense",
        "tm:lightscreen",
        "tm:magicroom",
        "tm:megakick",
        "tm:megapunch",
        "tm:metronome",
        "tm:mistyterrain",
        "tm:nastyplot",
        "tm:payback",
        "tm:powerswap",
        "tm:protect",
        "tm:psychic",
        "tm:psychicterrain",
        "tm:psyshock",
        "tm:raindance",
        "tm:reflect",
        "tm:rest",
        "tm:round",
        "tm:safeguard",
        "tm:screech",
        "tm:shadowball",
        "tm:skillswap",
        "tm:sleeptalk",
        "tm:snore",
        "tm:solarbeam",
        "tm:stompingtantrum",
        "tm:storedpower",
        "tm:substitute",
        "tm:sunnyday",
        "tm:taunt",
        "tm:thief",
        "tm:thunder",
        "tm:thunderbolt",
        "tm:thunderwave",
        "tm:trick",
        "tm:trickroom",
        "tm:uproar",
        "tm:wonderroom",
        "tm:zenheadbutt",
        "tutor:confusion",
        "tutor:copycat",
        "tutor:encore",
        "tutor:expandingforce",
        "tutor:iceshard",
        "tutor:tripleaxel"
      ],
      "labels": [
        "gen8",
        "galar_regional"
      ],
      "aspects": [
        "galarian"
      ],
      "height": 14,
      "weight": 568,
      "preEvolution": "mimejr",
      "evolutions": [
        {
          "id": "mrmime_mrrime",
          "variant": "level_up",
          "result": "mrrime",
          "consumeHeldItem": false,
          "learnableMoves": [],
          "requirements": [
            {
              "variant": "level",
              "minLevel": 42
            }
          ]
        }
      ],
      "cannotDynamax": false,
      "battleOnly": false,
      "drops": {
        "amount": 1,
        "entries": [
          {
            "item": "cobblemon:aspear_berry",
            "percentage": 5.0
          }
        ]
      }
    }
  ],
  "baseExperienceYield": 161,
  "experienceGroup": "medium_fast",
  "eggCycles": 25,
  "eggGroups": [
    "human_like"
  ],
  "moves": [
    "1:barrier",
    "1:batonpass",
    "1:copycat",
    "1:encore",
    "1:guardswap",
    "1:magicalleaf",
    "1:mistyterrain",
    "1:pound",
    "1:powerswap",
    "1:quickguard",
    "1:wideguard",
    "8:meditate",
    "11:doubleslap",
    "12:confusion",
    "15:psywave",
    "16:roleplay",
    "20:protect",
    "24:recycle",
    "28:psybeam",
    "29:substitute",
    "32:mimic",
    "36:lightscreen",
    "36:reflect",
    "36:safeguard",
    "36:trick",
    "40:suckerpunch",
    "44:dazzlinggleam",
    "48:psychic",
    "52:teeterdance",
    "egg:confuseray",
    "egg:fakeout",
    "egg:futuresight",
    "egg:hypnosis",
    "egg:icywind",
    "egg:magicroom",
    "egg:mimic",
    "egg:nastyplot",
    "egg:powersplit",
    "egg:psychicterrain",
    "egg:psychup",
    "egg:teeterdance",
    "egg:tickle",
    "egg:trick",
    "egg:wakeupslap",
    "tm:aerialace",
    "tm:allyswitch",
    "tm:attract",
    "tm:batonpass",
    "tm:bodyslam",
    "tm:brickbreak",
    "tm:calmmind",
    "tm:captivate",
    "tm:chargebeam",
    "tm:charm",
    "tm:confide",
    "tm:dazzlinggleam",
    "tm:doubleteam",
    "tm:drainpunch",
    "tm:dreameater",
    "tm:encore",
    "tm:endure",
    "tm:energyball",
    "tm:facade",
    "tm:firepunch",
    "tm:flash",
    "tm:fling",
    "tm:focusblast",
    "tm:focuspunch",
    "tm:foulplay",
    "tm:frustration",
    "tm:futuresight",
    "tm:gigaimpact",
    "tm:grassknot",
    "tm:guardswap",
    "tm:helpinghand",
    "tm:hiddenpower",
    "tm:hyperbeam",
    "tm:icepunch",
    "tm:icywind",
    "tm:infestation",
    "tm:irondefense",
    "tm:lightscreen",
    "tm:magicalleaf",
    "tm:magicroom",
    "tm:megakick",
    "tm:megapunch",
    "tm:metronome",
    "tm:mistyterrain",
    "tm:mysticalfire",
    "tm:nastyplot",
    "tm:naturalgift",
    "tm:payback",
    "tm:powerswap",
    "tm:poweruppunch",
    "tm:protect",
    "tm:psychic",
    "tm:psychicterrain",
    "tm:psychup",
    "tm:psyshock",
    "tm:raindance",
    "tm:recycle",
    "tm:reflect",
    "tm:rest",
    "tm:return",
    "tm:round",
    "tm:safeguard",
    "tm:secretpower",
    "tm:shadowball",
    "tm:shockwave",
    "tm:skillswap",
    "tm:sleeptalk",
    "tm:snatch",
    "tm:snore",
    "tm:solarbeam",
    "tm:storedpower",
    "tm:substitute",
    "tm:sunnyday",
    "tm:swagger",
    "tm:taunt",
    "tm:telekinesis",
    "tm:thief",
    "tm:thunder",
    "tm:thunderbolt",
    "tm:thunderpunch",
    "tm:thunderwave",
    "tm:torment",
    "tm:toxic",
    "tm:trick",
    "tm:trickroom",
    "tm:uproar",
    "tm:wonderroom",
    "tm:zenheadbutt",
    "tutor:allyswitch",
    "tutor:attract",
    "tutor:barrier",
    "tutor:batonpass",
    "tutor:bide",
    "tutor:bodyslam",
    "tutor:brickbreak",
    "tutor:calmmind",
    "tutor:confusion",
    "tutor:counter",
    "tutor:covet",
    "tutor:curse",
    "tutor:dazzlinggleam",
    "tutor:doubleedge",
    "tutor:doubleslap",
    "tutor:doubleteam",
    "tutor:drainpunch",
    "tutor:dreameater",
    "tutor:dynamicpunch",
    "tutor:encore",
    "tutor:endure",
    "tutor:expandingforce",
    "tutor:facade",
    "tutor:firepunch",
    "tutor:flash",
    "tutor:focuspunch",
    "tutor:followme",
    "tutor:foulplay",
    "tutor:frustration",
    "tutor:futuresight",
    "tutor:headbutt",
    "tutor:helpinghand",
    "tutor:hiddenpower",
    "tutor:hyperbeam",
    "tutor:hypnosis",
    "tutor:icepunch",
    "tutor:icywind",
    "tutor:irondefense",
    "tutor:lightscreen",
    "tutor:magiccoat",
    "tutor:magicroom",
    "tutor:meditate",
    "tutor:megakick",
    "tutor:megapunch",
    "tutor:metronome",
    "tutor:mimic",
    "tutor:mudslap",
    "tutor:nightmare",
    "tutor:pound",
    "tutor:protect",
    "tutor:psybeam",
    "tutor:psychic",
    "tutor:psychup",
    "tutor:psywave",
    "tutor:rage",
    "tutor:recycle",
    "tutor:reflect",
    "tutor:rest",
    "tutor:return",
    "tutor:roleplay",
    "tutor:safeguard",
    "tutor:seismictoss",
    "tutor:shadowball",
    "tutor:shockwave",
    "tutor:signalbeam",
    "tutor:skillswap",
    "tutor:skullbash",
    "tutor:sleeptalk",
    "tutor:snatch",
    "tutor:snore",
    "tutor:solarbeam",
    "tutor:submission",
    "tutor:substitute",
    "tutor:sunnyday",
    "tutor:swagger",
    "tutor:takedown",
    "tutor:taunt",
    "tutor:teeterdance",
    "tutor:telekinesis",
    "tutor:teleport",
    "tutor:thief",
    "tutor:thunder",
    "tutor:thunderbolt",
    "tutor:thunderpunch",
    "tutor:thunderwave",
    "tutor:toxic",
    "tutor:trick",
    "tutor:wonderroom",
    "tutor:zapcannon",
    "tutor:zenheadbutt"
  ],
  "labels": [
    "gen1",
    "kanto_regional"
  ],
  "pokedex": [
    "cobblemon.species.mrmime.desc"
  ],
  "preEvolution": "mimejr",
  "baseScale": 0.7,
  "hitbox": {
    "width": 0.8,
    "height": 1.8,
    "fixed": false
  },
  "baseFriendship": 50,
  "evYield": {
    "hp": 0,
    "attack": 0,
    "defence": 0,
    "special_attack": 0,
    "special_defence": 2,
    "speed": 0
  },
  "height": 13,
  "weight": 545,
  "aspects": [],
  "evolutions": [],
  "cannotDynamax": false,
  "drops": {
    "amount": 2,
    "entries": [
      {
        "item": "cobblemon:light_clay",
        "percentage": 5.0
      },
      {
        "item": "cobblemon:babiri_berry",
        "percentage": 5.0
      }
    ]
  }
}